{
    "web.main_app.import.price_now_title": "Purchase price now",
    "web.main_app.import.peak_usage_title": "Off-peak use",
    "web.main_app.import.stars_title": "Approx. above average",
    "web.main_app.import.price_today": "Purchase and sale price TODAY",
    "web.main_app.import.help_peak_usage": "The % of off-peak usage indicates how well you manage to avoid using electricity during the most expensive hours of the day. The higher the better. A 100% of off-peak usage indicates that you never use electricity during peak hours.",
    "web.main_app.import.help_stars": "The stars indicate how your \"off-peak usage\" is compared to other users.",
    "web.home_setup.import_tariff.title": "Select the contracted rate",
    "web.home_setup.tariff.title": "Rate",
    "web.home_setup.import_power.title": "Contracted power:",
    "web.generals.button.save": "save",
    "web.generals.week_day.monday": "monday",
    "web.generals.week_day.tuesday": "tuesday",
    "web.generals.week_day.wednesday": "wednesday",
    "web.generals.week_day.thursday": "thursday",
    "web.generals.week_day.friday": "friday",
    "web.generals.week_day.saturday": "saturday",
    "web.generals.week_day.sunday": "sunday",
    "web.generals.button.back": "back",
    "web.main_app.home_with_no_tariff_advise": "Make the initial configuration of your house in the \"Configuration\" section (button on the bottom bar).",
    "web.home_setup.period_prices.warning": "Required fields in numeric format.",
    "web.home_setup.import_periods.title": "Price of electricity per period (€/kWh):",
    "web.generals.week_day_abbr.monday": "mon",
    "web.generals.week_day_abbr.tuesday": "tue",
    "web.generals.week_day_abbr.wednesday": "wed",
    "web.generals.week_day_abbr.thursday": "thu",
    "web.generals.week_day_abbr.friday": "fri",
    "web.generals.week_day_abbr.saturday": "sat",
    "web.generals.week_day_abbr.sunday": "sun",
    "web.calendar_device.calendar.title": "calendar",
    "web.calendar_device.modal_interval.end": "end",
    "web.calendar_device.modal_interval.start": "start",
    "web.calendar_device.modal_interval.title": "edit interval",
    "web.calendar_device.modal_interval.delete_interval": "delete interval",
    "web.calendar_device.calendar.new": "new calendar",
    "web.calendar_device.modal_interval.new_interval": "New time interval",
    "web.calendar_device.calendar.explication_general": "Indicate when you need to have the room conditioned",
    "web.calendar_device.modes.comfort": "comfort",
    "web.calendar_device.modes.eco": "eco",
    "web.calendar_device.modes.night": "night",
    "web.calendar_device.edit_calendar.delete_calendar": "Delete calendar",
    "web.calendar_device.edit_calendar.operation_type": "Operation type",
    "web.calendar_device.edit_calendar.title": "edit calendar",
    "web.calendar_device.edit_calendar.name": "name",
    "web.calendar_device.modes.temperatures": "temperatures",
    "web.calendar_device.modes.lower_limit": "lower limit",
    "web.calendar_device.modes.upper_limit": "upper limit",
    "web.calendar_device.appliance_operation.title": "mode",
    "web.calendar_device.appliance_operation.cooling": "cooling",
    "web.calendar_device.appliance_operation.heating": "heating",
    "web.calendar_device.appliance_operation.regular": "regular",
    "web.calendar_device.size_appliance.little": "little",
    "web.calendar_device.size_appliance.medium": "medium",
    "web.calendar_device.size_appliance.big": "big",
    "web.calendar_device.size_appliance.title": "Air conditioning unit size",
    "web.calendar_device.size_appliance.undefined": "Select unit size",
    "web.control_panel.load_to_control": "What load do you want to control?",
    "general.appliances.hot_water": "water heater",
    "general.appliances.heater": "radiator",
    "web.control_panel.select_temperature_sensor": "Link a temperature sensor",
    "web.general.finish_button": "finish",
    "web.control_panel.no_temp_sensor_alert": "In order to configure the device as an electric heater/aerothermics, a temperature sensor must first be installed.",
    "web.main_app.peak_of_usage_rating_5": "Cool!! You avoid peak hours like a ninja!",
    "web.main_app.peak_of_usage_rating_4.5": "Congratulations! You almost always avoid peak hours!",
    "web.main_app.peak_of_usage_rating_4": "Very good, great job!",
    "web.main_app.peak_of_usage_rating_3.5": "Well, you consume off peak regularly!",
    "web.main_app.peak_of_usage_rating_3": "Not bad, you're above average.",
    "web.main_app.peak_of_usage_rating_2.5": "Almost! you're just below average.",
    "web.main_app.peak_of_usage_rating_2": "Cheer up! to improve is in your hands!",
    "web.main_app.peak_of_usage_rating_1.5": "Come on! There is room for improvement!",
    "web.main_app.peak_of_usage_rating_1": "Come on, you can do much better!",
    "web.main_app.peak_of_usage_rating_0.5": "Wow, you could consume much less during peak hours…",
    "web.main_app.peak_of_usage_rating_0": "What a pity, you really can't avoid peak hours?",
    "web.control_panel.extreme_savings_button_off": "Comfort saving",
    "web.control_panel.extreme_savings_button_on": "Max saving",
    "web.control_panel.use_all_solar_energy_button_off": "Improved self-consumption",
    "web.control_panel.use_all_solar_energy_button_on": "Maximum self-consumption",
    "general.calendar": "calendar",
    "web.control_panel.help_peak_usage": "Off-Peak Usage % indicates how well you manage to avoid using electricity during the most expensive hours of the day. The higher the better. 100% off-peak usage indicates that you never use electricity during peak hours.",
    "web.control_panel.help_stars": "The stars indicate how your \"off-peak usage\" compares to other users.",
    "web_control_panel.extreme_savings_button_help": "This selector allows you to modify the behavior of electricity consumption. \"Comfort saving\" is the \"normal\" mode of operation. It avoids consumption during peak hours as much as possible without losing comfort (keep temperature within programmed limits). \"Max saving\" ensures that the equipment is never turned on during peak hours (except with solar surpluses).",
    "web_control_panel.use_all_solar_energy_button_help": "This selector allows you to modify the degree of solar utilization. \"Improved self-consumption\" is the \"normal\" mode of operation. It adjusts to the established calendar and accumulates thermal energy in the environment as much as possible without losing comfort (it maintains the temperature within the programmed limits). \"Maximum self-consumption\" makes it possible to make the most of PV surpluses, even overheating or overcooling the room beyond the established temperature limits or operating hours.",
    "web.generals.button.delete": "delete",
    "web.generals.button.add": "add",
    "web.generals.button.modify": "modify",
    "web.calendar_device.edit_calendar.confirm_delete": "Are you sure you want to delete the calendar?",
    "web.calendar_device.modal_calendar.title": "Create calendar",
    "web.calendar_device.modal_temperature.title": "Edit temperature",
    "web.calendar_device.calendar.info_general": "The system is in charge of operating the air conditioning equipment optimally so that the room is at the right temperature when you need it.\nFor this, pre-heating or cooling can be done taking into account the price of electricity every hour and the thermal inertia of the room, among other things.",
    "web.calendar_device.size_appliance.info": "Knowing the size of the air conditioning equipment helps to better manage photovoltaic surpluses.\n- Small: individual equipment for a bedroom-type room.\n- Medium: somewhat more powerful equipment that air-conditions a large room such as a living room.\n- Large: equipment that works through ducts and air-conditions an entire apartment (2 bedrooms and a living room, for example).",
    "web.calendar_device.edit_calendar.temperature_info": "The system allows you to set 3 different temperature sets for each calendar (COMFORT, ECO AND NIGHT) that can be applied at different times of the day.",
    "web.calendar_device.modes.upper_limit_restriction": "The upper limit cannot be lower than the central set point.",
    "web.calendar_device.modes.lower_limit_restriction": "The lower limit cannot be higher than the central setpoint.",
    "web.calendar_device.operation_type.info_others": "Next, a new calendar will be created based on a template that you can modify according to your needs.",
    "web.calendar_device.operation_type.info_ac": "Next, a new calendar will be created based on a template that you can modify according to your needs. Choose whether the calendar will be used for heating or cooling:",
    "web.calendar_device.device.assign_appliance": "There is no device linked. Go back to the control panel to continue.",
    "web.main_app.weather.no_weather_info": "To display the weather information, you must indicate the location of the home. Go to 'My account' - 'Home management' (select your home) - 'Location'.",
    "web.calendar_device.unlink_appliance.info": "The \"%appliance\" will be unlinked from the device. All associated calendars will be deleted.",
    "web.generals.button.continue": "continue",
    "web.generals.button.cancel": "cancel",
    "web.calendar_device.unlink_appliance.title": "unlink",
    "web.device_calendar.unlink_appliance.text": "Linked appliance",
    "web.calendar_device.modes.shutdown": "shutdown",
    "web.calendar_device.modes_info.shower": "For the use of \"shower\" the availability of hot water is guaranteed even if water has to be heated during peak hours.",
    "web.calendar_device.modes_info.others": "For \"other uses\" (washing hands or dishes) it is allowed that the water is not at the maximum temperature.",
    "web.calendar_device.edit_calendar.hot_water": "Uses of hot water",
    "web.operation_pool_device.operation_pool.title": "Operation mode",
    "web.operation_pool_device.operation_selected": "Select operation mode:",
    "web.operation_pool_device.optimized_option": "Optimized - daily hours",
    "web.operation_pool_device.surplus_fv_option": "PV surplus only",
    "web.operation_pool_device.fixed_option": "Fixed schedule",
    "web.operation_pool_device.optimized_explication": "Indicate how many hours a day the pool filter should work (priority is given to use with solar surpluses).",
    "web.operation_pool_device.optimized_help": "This is the recommended mode of operation.\nThe system will try to filter the pool whenever there is solar surplus until reaching the total number of hours indicated.\nIf there are not enough solar surpluses, the filtering will be completed in the cheapest hours of the day.",
    "web.operation_pool_device.optimized_warning": "The hours selected must be between 1 and 24.",
    "web.operation_pool_device.daylight_check": "Force daytime operation time.",
    "web.opetaion_pool_device.daylight_explication": "A minimum pool filtering time can be forced during sunny hours. The rest of the minutes will be done with solar surpluses or during the cheapest hours.",
    "web.operation_pool_device.daylight_sub_1": "Operate at least",
    "web.operation_pool_device.daylight_sub_2": "hours a day.",
    "web.operation_pool_device.daylight_warning_1": "Hours of daytime use cannot be more than 12.",
    "web.operation_pool_device.daylight_warning_2": "Hours of daytime cannot be more than the optimized hours.",
    "web.operation_pool_device.surplus_explication": "The pool pump will only work with solar surplus.",
    "web.operation_pool_device.surplus_help": "This mode of operation guarantees that the filtering of the pool is done only with solar surplus.\nThe system will turn on the filtering whenever there is solar surplus, without exceeding the maximum number of hours indicated.",
    "web.operation_pool_device.surplus_hours": "Indicate the maximum hours per day to avoid excessive use.",
    "web.operation_pool_device.fixed_explication": "Indicate the hours of the day in which the filtering of the pool must work.",
    "web.operation_pool_device.operation_selected_none": "Select a type of operation.",
    "web.generals.hours": "hours.",
    "web.operation_pool_device.latlon_warning": "To configure this mode of operation, you must indicate the location of the home. Go to 'My account' - 'Home management' (select your home) - 'Location'",
    "web.calendar_device.calendar.explication_hot_water": "Indicate when you need hot water.",
    "web.calendar_device.calendar.info_hot_water": "The system is in charge of operating the water heater optimally to have hot water when you need it.\nFor this, the hourly price of electricity is taken into account, as well as the thermal inertia of the water tank and the expected use of hot water.",
    "web.control_panel.no_calendar.info": "There is no calendar configured. Go to settings to create a new one.",
    "web.home_setup.solar_option.check": "I have photovoltaic panels",
    "web.home_setup.export_tariff.title": "Select the export tariff:",
    "web.home_setup.solar_option.system_title": "Select inverter/meter brand:",
    "web.home_setup.solar_option.wibeee_search": "Searching for Wibeee devices...",
    "web.home_setup.solar_option.wibeee_title": "Select mains and solar channel:",
    "web.home_setup.solar_option.wibeee_info": "Among the devices found in your network, select the device, channel and direction of the current both for the measurement of the mains of the house and for the PV panels. Keep in mind that to read from a three-phase Wibeee you must select channel 4.\n\nIf you later need to change the setting, you will need to delete it (trash can icon) and specify it again.",
    "web.home_setup.solar_option.amortized_check": "I want to calculate the amortization of the PV system",
    "web.home_setup.solar_option.installation_cost": "Installation cost",
    "web.home_setup.solar_option.initial_amortized": "Amount already amortized",
    "web.home_setup.solar_option.amortized_info": "If the PV installation has been operating for some time, a part will have already been amortized. Indicate here how much has been amortized up to the moment of connecting the gateway, in € (or your monetary unit).",
    "web.home_setup.solar_option.amortized_warning": "Both the installation cost and the initial amortization must have a value greater than zero.",
    "web.home_setup.modal_sign.title": "Direction of the current",
    "web.home_setup.modal_sign.info": "The direction of the current is important if you have photovoltaic generation. Solar production and energy import (consumption) are considered positive. The export of electricity to the grid is considered negative.\nIf, for example, PV production is negative or there is export of energy at night, you must invert the sign.",
    "web.home_setup.modal_sign.direction_info": "Direct sense.",
    "web.home_setup.modal_sign.inverse_info": "Inverted sense.",
    "web.home_setup.solar_option.device_option": "Select the device",
    "web.main_app.solar.price_now_title": "Sale price now",
    "web.main_app.solar.percentage_selfconsumption": "Self-consumption",
    "web.main_app.solar.help_percentage_selfconsumption": "The self-consumption % indicates the degree of local use of your PV installation. The more you take advantage of the energy you produce (self-consumption) instead of exporting, the more profitable you make your investment in PV generation. Ideally, you should take advantage of all your production!",
    "web.main_app.solar.help_stars": "The stars indicate how your \"self-consumption\" is compared to other users.",
    "web.main_app.solar.amortized_title": "Amortization",
    "web.main_app.solar.help_amortized": "The system calculates each day how much money your PV installation has generated, both for the surpluses sold and for the self-consumed energy (which did not have to be purchased from the grid). Amortization indicates how much of the cost of your PV installation has already been recovered. Better management of surpluses and an increase in your % of self-consumption will lead to faster amortization.",
    "web.main_app.selfconsumption_rating_5": "Cool!! You are the perfect self-consumer!",
    "web.main_app.selfconsumption_rating_4.5": "Congratulations! You are a great self-consumer!",
    "web.main_app.selfconsumption_rating_4": "Very good, good job!",
    "web.main_app.selfconsumption_rating_3.5": "Well, you are a disciplined self-consumer!",
    "web.main_app.selfconsumption_rating_3": "Not bad, you're above average.",
    "web.main_app.selfconsumption_rating_2.5": "Almost! you're just below average.",
    "web.main_app.selfconsumption_rating_2": "Cheer up! improvement is in your hands!",
    "web.main_app.selfconsumption_rating_1.5": "Let's go! There is room for improvement!",
    "web.main_app.selfconsumption_rating_1": "Come on, you can do much better!",
    "web.main_app.selfconsumption_rating_0.5": "Wow, you could get more out of your panels...",
    "web.main_app.selfconsumption_rating_0": "What a pity, can't you really self-consume anymore?",
    "web.home_setup.solar_option.system_info": "Select the inverter brand of your PV system.",
    "web.calendar_device.modal_interval.check_mode": "Indicate a mode",
    "web.calendar_device.modal_interval.check_start": "Please enter a start time",
    "web.calendar_device.modal_interval.check_end": "Indicate an end time",
    "web.generals.switch.solar": "solar",
    "web.generals.switch.network": "net",
    "web.generals.peak_hour": "peak hour",
    "web.generals.no_peak_hour": "off-peak hour",
    "web.main_app.import.balance_today": "Hourly balance TODAY",
    "web.main_app.solar.help_hourly_balance": "The “Hourly balance” shows the net exchange of energy with the electrical grid every hour. The objective is to achieve a balance “0”. This means not buying energy from the network and not selling your own generation (that is, taking advantage of all your production)",
    "web.generals.no_value": "No value",
    "web.control_panel.aditional_info_acs.calendar_on": "Turning on with surpluses and during critical hours (anticipated switch-on of 2h).",
    "web.control_panel.aditional_info_acs.calendar_off": "Manual operation only.",
    "web.control_panel.aditional_info_others.calendar_on": "Switch on according to calendar.",
    "web.control_panel.aditional_info_others.calendar_self_consumption": "Switch on according to calendar. Rest of the time, switch on with surpluses (%temp°C).",
    "web.control_panel.aditional_info_others.self_consumption": "Switch on only with surpluses (%tempºC).",
    "web.control_panel.aditional_info_others.calendar_off": "Manual operation only.",
    "web.home_setup.solar_option.huawei_search": "Looking for Huawei devices...",
    "web.home_setup.solar_option.huawei_title": "Configure the Wi-Fi network of your inverter:",
    "web.home_setup.solar_option.huawei_warning": "To save it is necessary to select a device and fill in the pwd field.",
    "web.home_setup.solar_option.any_search": "Searching for devices",
    "web.home_setup.solar_option.others_title": "Inverter detected:",
    "web.control_panel.no_gateway_data.text": "The gateway cannot communicate with this device.",
    "web.control_panel.no_gateway_data.info": "For the system to work, the Gateway and the actuators must be in the same local network (same LAN). An actuator connected to a Wi-Fi repeater can be in a different subnet (depending on the type of Wi-Fi repeater and its configuration). If you are using a mesh system, you must connect the Gateway to one of the mesh modules.",
    "web.home_setup.solar_option.gateway_title": "Gateway installed",
    "web.generals.connected": "connected",
    "web.generals.disconnected": "disconnected",
    "web.calendar_device.modes.title": "Hourly programming temperatures",
    "web.calendar_device.surplus.title": "Behavior if there are surpluses",
    "web.calendar_device.surplus.info": "In the event that there are surpluses of PV production, a \"stronger\" thermal setpoint can be applied to accumulate thermal energy in the environment. Normally, during scheduled hours (occupied room) a comfortable temperature will be set. On the contrary, outside the scheduled hours a more extreme temperature is allowed.",
    "web.calendar_device.surplus.in_hour": "During scheduled hours",
    "web.calendar_device.surplus.modify_temp": "Operate at temperature",
    "web.calendar_device.surplus.only_surplus": "Operate only if there are surpluses",
    "web.calendar_device.surplus.out_hour": "Outside of scheduled hours",
    "web.calendar_device.surplus.out_hour_temp": "Operate at temperature",
    "web.calendar_device.peak_hour.title": "Behavior during peak hours",
    "web.calendar_device.peak_hour.info": "During peak hours (the most expensive) the behavior of the equipment can be varied to avoid partial or total consumption. Softening setpoint means increasing the target temperature by a few degrees in cooling mode or decreasing them in heating mode.",
    "web.calendar_device.peak_hour.temperature": "Soften setpoint 2ºC",
    "web.calendar_device.peak_hour.forced_off": "Force appliance shutdown",
    "web.calendar_device.peak_hour.no_changes": "Do not make changes",
    "web.calendar_device.pre_start.title": "Anticipated switch-on",
    "web.calendar_device.pre_start.info": "The anticipated switch-on is an energy optimization consisting of taking advantage of the thermal inertia of the house to move consumption to more convenient hours. It works according to the circumstances of energy price and surpluses. In this way, if some time before a scheduled use the energy is cheaper (or there is surplus), the air conditioning unit will turn on to accumulate heat or cold in the room (as appropriate) and reduce consumption during the most expensive hours. An anticipated switch-on time must be indicated in hours (eg 2h). To disable this function, indicate a time of 0h.",
    "web.calendar_device.pre_start.time": "Anticipated switch-on time",
    "web.calendar_device.modal_modify_value.title": "Edit pre-ignition time",
    "web.home_setup.amortized.title": "Amortization",
    "web.home_setup.gateway.title": "Gateway config",
    "web.home_setup.no_gateway.info": "No Gateway has been detected in your home. Remember that in order to detect a Gateway you must first have an actuator installed on the same network (Plug, Switch or IR).\nIf you already have a Gateway and actuator installed, wait a few minutes (around 20 min the first time).",
    "web.analytics.amortized.subtitle": "Amortization of the installation",
    "web.analytics.global.title": "Global analysis",
    "web.analytics.date.title": "Analysis",
    "web.analytics.date.balance": "net balance",
    "web.analytics.date.exported": "Sold",
    "web.analytics.date.generated": "Generated",
    "web.analytics.date.selfconsumption": "Self-consumed",
    "web.analytics.aggregate_date.purchased": "Purchased",
    "web.analytics.aggregate_date.selfconsumption": "Self-cons.",
    "web.analytics.aggregate_date.subtitle": "Aggregate data current month",
    "web.main_app.location.no_location_info": "For the correct management of surpluses, the location of the home must be indicated. Go to 'My account' - 'Home management' (select your home) - 'Location'.",
    "web.main_app.aggregate_date.today": "Aggregated data TODAY",
    "web.main_app.aggregate_date.info_today": "Daily aggregate data",
    "web.analytics.amortized.no_amortized": "There is no amortization data because you have not indicated the cost of your solar installation.",
    "web.generals.date_period.no_data": "There is no data for the selected period.",
    "web.main_app.device_status.title": "Equipment status NOW",
    "web.main_app.device_status.info": "Green: ON due to surplus. | Yellow: Manual or scheduled running. | Gray: Device Off or without consumption. | Red: The device is not connected or the gateway cannot communicate with this device.",
    "web.main_app.device_status.on_schedule": "Device turned on manually or scheduled",
    "web.main_app.device_status.by_surplus": "Device turned on due to surpluses",
    "web.main_app.device_status.off": "Device off or without consumption",
    "web.main_app.device_status.no_data": "Device not connected to the gateway",
    "web.control_panel.last_week.title": "Last week view",
    "web.control_panel.surplus_use.title": "Surplus usage time",
    "web.control_panel.normal_use.title": "Scheduled or manual usage time",
    "web.control_panel.calendar_option.manual": "Manual mode",
    "web.control_panel.surplus_use.tooltip": "Time of use with surplus",
    "web.control_panel.normal_use.tooltip": "Programmed usage time",
    "general.appliances.heater_no_sensor_temp": "heater without sensor",
    "web.calendar_device.appliance_operation.heating_ns": "heating",
    "general.option.heater_no_sensor_temp": "Without temperature sensor",
    "web.calendar_device.modes.heating_ns": "on",
    "general.appliances.pool": "swimming pool",
    "web.home_setup.solar_option.sungrow_info": "Some Sungrow inverters do not offer grid consumption measurement (import/export). This data is essential to be able to manage the photovoltaic surpluses. If your inverter model does not offer this data you will need a Wibeee meter. Consult this information in the list of compatible inverters.",
    "web.home_setup.solar_option.sungrow_wibeee_title": "Select the mains channel of your meter.",
    "web.home_setup.solar_option.sungrow_wibeee_info": "If your meter is a three-phase meter, the mains channel is channel 4. If it is a single-phase meter, it is usually set to channel 1.",
    "web.home_setup.solar_option.sungrow_check": "The mains consumption data (import/export) is obtained from a Wibeee meter.",
    "web.home_setup.solar_option.available_inverters": "List of compatible inverters",
    "web.analytics.date.surplus": "Surpluses used",
    "web.analytics.selfconsumption.orchestra_percentage": "Percentage due to surplus management",
    "web.analytics.amortized.by_orchestra": "Benefit from smart surplus management",
    "web.analytics.amortized.total": "Total",
    "web.general.from": "from",
    "web.generals.connected_no_data": "connecting...",
    "web.generals.login_text": "Enter your username and password",
    "web.generals.login_unfilled": "It is necessary to complete the form.",
    "web.home_setup.solar_option.inverter_info": "Some inverters of this brand do not offer the measurement of the mains channel. This data is essential to manage the photovoltaic surpluses. If your inverter model does not offer this data you will need a Wibeee meter. Consult this information in the list of compatible inverters.",
    "web.main_app.help_order_appliances": "Sort the power-on priority of your equipment.",
    "web.home_setup.updating_fw": "Updating FW",
    "web.generals.form.text": "",
    "web.main_app.import.price_tooltip": "Purchase price",
    "web.main_app.export.price_tooltip": "Sales price",
    "web.home_setup.solar_option.config_info": "How to configure your inverter/meter?",
    "web.info.title.main": "Linked account",
    "web.info.link.text": "If you are an installer and have a mirubeee professional account, enter the account code here so that this user appears in your administration panel.",
    "web.info.link_code.error": "Incorrect account code.",
    "web.info.button.docs": "Open user manual",
    "web.info.link.placeholder": "ACCOUNT CODE",
    "web.generals.new_password.text": "New password",
    "web.generals.new_password.text_muted": "Please enter your password.",
    "web.generals.repeat_password.text": "Repeat password",
    "web.generals.repeat_password.text_muted": "Please enter your password.",
    "web.generals.legal_conditions.text": "I accept the legal conditions.",
    "web.generals.legal_conditions.read": "Read.",
    "web.activate_password.button": "Activate user",
    "web.activate_password.text": "Hello %email, enter a password to activate your user",
    "web.reset_password.text": "Hello %email, complete the following form to reset your password",
    "web.reset_password.button": "Reset password",
    "web.admin_users.delete_admin_user.modal_info": "User %name is being deleted.",
    "web.admin_users.modal_delete.title": "Delete admin user",
    "web.generals.forgotten_pwd.modal_text_submit": "We have just sent you an email with instructions to reset the password.",
    "web.generals.forgotten_pwd.modal_title": "Forgotten Password ?",
    "web.generals.forgotten_pwd.modal_text": "Enter your email to reset your password",
    "general.appliances.aerothermal_no_sensor_temp": "aerothermics without sensor",
    "general.appliances.aerothermal": "aerothermics",
    "web.calendar_device.automatic_calendar_aerothermal.explication": "",
    "web.calendar_mode.automatic": "Automatic mode",
    "web.calendar_device.surplus.hot_water_info": "",
    "web.home_setup.batteries": "I have batteries",
    "web.calendar_device.modes.switch_on": "on",
    "web.calendar_device.modal_interval.text_info_hot_water": "",
    "web.calendar_device.modal_interval.check_intervals": "",
    "web.home_setup.no_timezone.info": ""
}