{
    "web.main_app.import.price_now_title": "Precio de compra ahora",
    "web.main_app.import.peak_usage_title": "Uso fuera de pico",
    "web.main_app.import.stars_title": "Aprox. sobre la media",
    "web.main_app.import.price_today": "Precio de compra y venta HOY",
    "web.main_app.import.help_peak_usage": "El % de uso fuera de pico indica en qué medida consigues evitar el consumo de electricidad durante las horas más caras del día. Cuanto más alto mejor. Un 100% de uso fuera de pico indica que nunca usas electricidad durante las horas pico.",
    "web.main_app.import.help_stars": "Las estrellas indican cómo es tu \"uso fuera de pico\" en comparación con otros usuarios.",
    "web.home_setup.import_tariff.title": "Selecciona la tarifa contratada",
    "web.home_setup.tariff.title": "Tarifa",
    "web.home_setup.import_power.title": "Potencia contratada:",
    "web.generals.button.save": "guardar",
    "web.generals.week_day.monday": "lunes",
    "web.generals.week_day.tuesday": "martes",
    "web.generals.week_day.wednesday": "miércoles",
    "web.generals.week_day.thursday": "jueves",
    "web.generals.week_day.friday": "viernes",
    "web.generals.week_day.saturday": "sábado",
    "web.generals.week_day.sunday": "domingo",
    "web.generals.button.back": "volver",
    "web.main_app.home_with_no_tariff_advise": "Haz la configuración inicial de tu casa en la sección \"Configuración\" (botón en la barra inferior).",
    "web.home_setup.period_prices.warning": "Campos en formato numérico obligatorios.",
    "web.home_setup.import_periods.title": "Precio de la electricidad por período (€/kWh):",
    "web.generals.week_day_abbr.monday": "lun",
    "web.generals.week_day_abbr.tuesday": "mar",
    "web.generals.week_day_abbr.wednesday": "mie",
    "web.generals.week_day_abbr.thursday": "jue",
    "web.generals.week_day_abbr.friday": "vie",
    "web.generals.week_day_abbr.saturday": "sab",
    "web.generals.week_day_abbr.sunday": "dom",
    "web.calendar_device.calendar.title": "calendario",
    "web.calendar_device.modal_interval.end": "fin",
    "web.calendar_device.modal_interval.start": "inicio",
    "web.calendar_device.modal_interval.title": "editar franja",
    "web.calendar_device.modal_interval.delete_interval": "eliminar franja",
    "web.calendar_device.calendar.new": "nuevo calendario",
    "web.calendar_device.modal_interval.new_interval": "Nueva franja horaria",
    "web.calendar_device.calendar.explication_general": "Indica cuándo necesitas tener la habitación climatizada",
    "web.calendar_device.modes.comfort": "confort",
    "web.calendar_device.modes.eco": "eco",
    "web.calendar_device.modes.night": "noche",
    "web.calendar_device.edit_calendar.delete_calendar": "Borrar calendario",
    "web.calendar_device.edit_calendar.operation_type": "Tipo de operación",
    "web.calendar_device.edit_calendar.title": "editar calendario",
    "web.calendar_device.edit_calendar.name": "nombre",
    "web.calendar_device.modes.temperatures": "temperaturas",
    "web.calendar_device.modes.lower_limit": "límite inferior",
    "web.calendar_device.modes.upper_limit": "límite superior",
    "web.calendar_device.appliance_operation.title": "modo",
    "web.calendar_device.appliance_operation.cooling": "refrigeración",
    "web.calendar_device.appliance_operation.heating": "calefacción",
    "web.calendar_device.appliance_operation.regular": "normal",
    "web.calendar_device.size_appliance.little": "pequeño",
    "web.calendar_device.size_appliance.medium": "mediano",
    "web.calendar_device.size_appliance.big": "grande",
    "web.calendar_device.size_appliance.title": "Tamaño del equipo de AA/BC",
    "web.calendar_device.size_appliance.undefined": "Selecciona tamaño de equipo",
    "web.control_panel.load_to_control": "¿Qué carga quieres controlar?",
    "general.appliances.hot_water": "termo",
    "general.appliances.heater": "radiador",
    "web.control_panel.select_temperature_sensor": "Vincula un sensor de temperatura",
    "web.general.finish_button": "finalizar",
    "web.control_panel.no_temp_sensor_alert": "Para configurar el dispositivo como radiador/aerotermia primero se debe instalar un sensor de temperatura.",
    "web.main_app.peak_of_usage_rating_5": "Genial!! Evitas las horas pico como un ninja!",
    "web.main_app.peak_of_usage_rating_4.5": "Enhorabuena! Casi siempre evitas las horas pico!",
    "web.main_app.peak_of_usage_rating_4": "Muy bien, buen trabajo!",
    "web.main_app.peak_of_usage_rating_3.5": "Bien, consumes fuera de pico habitualmente!",
    "web.main_app.peak_of_usage_rating_3": "No está mal, estás por encima de la media.",
    "web.main_app.peak_of_usage_rating_2.5": "Casi! estás justo por debajo de la media.",
    "web.main_app.peak_of_usage_rating_2": "Ánimo! mejorar está en tus manos!",
    "web.main_app.peak_of_usage_rating_1.5": "Vamos! Hay margen de mejora!",
    "web.main_app.peak_of_usage_rating_1": "Venga, puedes hacerlo mucho mejor!",
    "web.main_app.peak_of_usage_rating_0.5": "Vaya, podrías consumir mucho menos en horas pico…",
    "web.main_app.peak_of_usage_rating_0": "Qué lástima, de verdad no puedes evitar las horas pico?",
    "web.control_panel.extreme_savings_button_off": "Ahorro cómodo",
    "web.control_panel.extreme_savings_button_on": "Ahorro máximo",
    "web.control_panel.use_all_solar_energy_button_off": "Autoconsumo mejorado",
    "web.control_panel.use_all_solar_energy_button_on": "Autoconsumo máximo",
    "general.calendar": "calendario",
    "web.control_panel.help_peak_usage": "El % de uso fuera de pico indica en qué medida consigues evitar el consumo de electricidad durante las horas más caras del día. Cuanto más alto mejor. Un 100% de uso fuera de pico indica que nunca usas electricidad durante las horas pico.",
    "web.control_panel.help_stars": "Las estrellas indican cómo es tu \"uso fuera de pico\" en comparación con otros usuarios.",
    "web_control_panel.extreme_savings_button_help": "Este selector permite modificar el comportamiento del consumo de electricidad. \"Ahorro cómodo\" es el modo \"normal\" de operación. Evita el consumo durante las horas pico en la medida de lo posible sin perder el confort (mantiene la temperatura dentro de los límites programados). \"Ahorro máximo\" asegura que el equipo no se encienda nunca durante las horas pico (excepto con excedentes solares).",
    "web_control_panel.use_all_solar_energy_button_help": "Este selector permite modificar el grado de aprovechamiento solar. \"Autoconsumo mejorado\" es el modo \"normal\" de operación. Se ajusta al calendario establecido y acumula energía térmica en el ambiente en la medida de lo posible sin perder el confort (mantiene la temperatura dentro de los límites programados). \"Autoconsumo máximo\" permite aprovechar al máximo los excedentes FV, incluso sobrecalentando o sobreenfriando la estancia más allá de los límites de temperatura o las horas de operación establecidas.",
    "web.generals.button.delete": "borrar",
    "web.generals.button.add": "añadir",
    "web.generals.button.modify": "modificar",
    "web.calendar_device.edit_calendar.confirm_delete": "¿Seguro que quieres borrar el calendario?",
    "web.calendar_device.modal_calendar.title": "Crear calendario",
    "web.calendar_device.modal_temperature.title": "Editar temperatura",
    "web.calendar_device.calendar.info_general": "El sistema se encarga de operar el equipo de climatización de forma óptima para que la estancia esté a la temperatura adecuada cuando tú lo necesitas.\nPara ello se pueden hacer preencendidos teniendo en cuenta el precio de la electricidad en cada hora y la inercia térmica de la estancia, entre otras cosas.",
    "web.calendar_device.size_appliance.info": "Conocer el tamaño del equipo de climatización ayuda a gestionar mejor los excedentes fotovoltaicos.\n- Pequeño: equipo individual de una estancia tipo dormitorio.\n- Mediano: equipo algo más potente que climatiza una estancia grande como un salón.\n- Grande: equipo que funciona por conductos y climatiza todo un apartamento (2 habitaciones y un salón, por ejemplo).",
    "web.calendar_device.edit_calendar.temperature_info": "El sistema permite configurar 3 juegos de temperaturas diferentes para cada calendario (CONFORT, ECO Y NOCHE) que se pueden aplicar a diferentes momentos del día.",
    "web.calendar_device.modes.upper_limit_restriction": "El límite superior no puede ser inferior a la consigna central.",
    "web.calendar_device.modes.lower_limit_restriction": "El límite inferior no puede ser superior a la consigna central.",
    "web.calendar_device.operation_type.info_others": "A continuación se creará un nuevo calendario basado en una plantilla que podrás modificar según tus necesidades.",
    "web.calendar_device.operation_type.info_ac": "A continuación se creará un nuevo calendario basado en una plantilla que podrás modificar según tus necesidades. Elige si el calendario se usará para calefacción o para refrigeración:",
    "web.calendar_device.device.assign_appliance": "No hay equipo vinculado. Vuelve al panel de control para continuar.",
    "web.main_app.weather.no_weather_info": "Para mostrar la información meteorológica hay que indicar la localización del hogar. Ve a ‘Mi cuenta’ - ‘Gestión del hogar’ (selecciona tu hogar) - ‘Localización’.",
    "web.calendar_device.unlink_appliance.info": "Se va a desvincular el \"%appliance\" del dispositivo. Todos los calendarios asociados se eliminarán.",
    "web.generals.button.continue": "continuar",
    "web.generals.button.cancel": "cancelar",
    "web.calendar_device.unlink_appliance.title": "desvincular",
    "web.device_calendar.unlink_appliance.text": "Equipo vinculado",
    "web.calendar_device.modes.shutdown": "apagado",
    "web.calendar_device.modes_info.shower": "Para el uso de \"ducha\" se garantiza la disponibilidad de agua caliente aunque se tenga que calentar agua durante las horas pico.",
    "web.calendar_device.modes_info.others": "Para \"otros usos\" (lavar manos o platos) se permite que el agua no esté a la máxima temperatura.",
    "web.calendar_device.edit_calendar.hot_water": "Usos del agua caliente",
    "web.operation_pool_device.operation_pool.title": "Modo de operación",
    "web.operation_pool_device.operation_selected": "Selecciona el modo de operación:",
    "web.operation_pool_device.optimized_option": "Optimizado - horas diarias",
    "web.operation_pool_device.surplus_fv_option": "Sólo excedentes FV",
    "web.operation_pool_device.fixed_option": "Horario fijo",
    "web.operation_pool_device.optimized_explication": "Indica cuántas horas al día debe funcionar el filtrado de la piscina (se prioriza el uso con excedentes solares).",
    "web.operation_pool_device.optimized_help": "Este es el modo de operación recomendado.\nEl sistema tratará de operar el filtrado de la piscina siempre que haya excedentes solares hasta llegar al total de horas indicado.\nSi no hubiese suficientes excedentes solares se completará el filtrado en las horas más baratas del día.",
    "web.operation_pool_device.optimized_warning": "Las horas seleccionadas deben estar entre 1 y 24.",
    "web.operation_pool_device.daylight_check": "Forzar tiempo de operación diurna.",
    "web.opetaion_pool_device.daylight_explication": "Se puede forzar un tiempo mínimo de filtrado de piscina durante las horas de sol. El resto de minutos se hará con excedentes solares o durante las horas más baratas.",
    "web.operation_pool_device.daylight_sub_1": "Operar al menos",
    "web.operation_pool_device.daylight_sub_2": "horas diurnas.",
    "web.operation_pool_device.daylight_warning_1": "Las horas de uso diurno no pueden ser más de 12.",
    "web.operation_pool_device.daylight_warning_2": "Las horas de uso diurno no pueden ser más que las horas optimizadas.",
    "web.operation_pool_device.surplus_explication": "La bomba de piscina solo funcionará con excedentes solares.",
    "web.operation_pool_device.surplus_help": "Este modo de operación garantiza que el filtrado de la piscina se haga sólo con excedentes solares.\nEl sistema encenderá el filtrado siempre que haya excedentes solares, sin sobrepasar el máximo de horas indicado.",
    "web.operation_pool_device.surplus_hours": "Indica el máximo de horas al día para evitar un uso excesivo.",
    "web.operation_pool_device.fixed_explication": "Indica las horas del día en las que debe funcionar el filtrado de la piscina.",
    "web.operation_pool_device.operation_selected_none": "Selecciona un tipo de operación.",
    "web.generals.hours": "horas.",
    "web.operation_pool_device.latlon_warning": "Para configurar este modo de operación hay que indicar la localización del hogar. Ve a ‘Mi cuenta’ - ‘Gestión del hogar’ (selecciona tu hogar) - ‘Localización’",
    "web.calendar_device.calendar.explication_hot_water": "Indica cuándo necesitas disponer de agua caliente.",
    "web.calendar_device.calendar.info_hot_water": "El sistema se encarga de operar el termo de forma óptima para disponer de agua caliente cuando tú lo necesitas.\nPara ello se tiene en cuenta el precio de la electricidad en cada hora, la inercia térmica del termo y el uso previsto de agua caliente.",
    "web.control_panel.no_calendar.info": "No hay ningún calendario configurado. Ve a ajustes para crear uno nuevo.",
    "web.home_setup.solar_option.check": "Tengo placas fotovoltaicas",
    "web.home_setup.export_tariff.title": "Selecciona la tarifa de exportación:",
    "web.home_setup.solar_option.system_title": "Selecciona la marca de tu inversor/medidor:",
    "web.home_setup.solar_option.wibeee_search": "Buscando dispositivos Wibeee...",
    "web.home_setup.solar_option.wibeee_title": "Selecciona canal general y solar:",
    "web.home_setup.solar_option.wibeee_info": "Entre los dispositivos encontrados en tu red, selecciona el dispositivo, canal y sentido de la corriente tanto para la medida del consumo general de la casa como para el de las placas FV. Ten en cuenta que para leer de un Wibeee trifásico hay que seleccionar el canal 4.\n\nSi más adelante necesitas cambiar la configuración, deberás eliminarla (icono papelera) y especificarla de nuevo.",
    "web.home_setup.solar_option.amortized_check": "Quiero calcular la amortización de la instalación FV",
    "web.home_setup.solar_option.installation_cost": "Coste de instalación",
    "web.home_setup.solar_option.initial_amortized": "Cantidad ya amortizada",
    "web.home_setup.solar_option.amortized_info": "Si la instalación FV lleva un tiempo funcionando se habrá amortizado ya una parte. Indica aquí cuánto se ha amortizado hasta el momento de conectar el gateway, en € (o tu unidad monetaria).",
    "web.home_setup.solar_option.amortized_warning": "Tanto el coste de instalación como la amortización inicial deben tener un valor superior a cero.",
    "web.home_setup.modal_sign.title": "Sentido de la corriente",
    "web.home_setup.modal_sign.info": "El sentido de la corriente es importante si tienes generación fotovoltaica. Se considera positiva la producción solar y la importación de energía (consumo). Se considera negativa la exportación de electricidad a la red.\nSi por ejemplo sale producción FV negativa o exportación por la noche, deberás invertir el signo.",
    "web.home_setup.modal_sign.direction_info": "Sentido directo.",
    "web.home_setup.modal_sign.inverse_info": "Sentido invertido.",
    "web.home_setup.solar_option.device_option": "Selecciona el dispositivo",
    "web.main_app.solar.price_now_title": "Precio de venta ahora",
    "web.main_app.solar.percentage_selfconsumption": "Autoconsumo",
    "web.main_app.solar.help_percentage_selfconsumption": "El % de autoconsumo indica el grado de aprovechamiento local de tu instalación FV. Cuanto más aprovechas la energía que produces (autoconsumo) en vez de exportar, más rentabilizas tu inversión en generación FV. Lo ideal es aprovechar toda tu producción!",
    "web.main_app.solar.help_stars": "Las estrellas indican cómo es tu \"autoconsumo\" en comparación con otros usuarios.",
    "web.main_app.solar.amortized_title": "Amortización",
    "web.main_app.solar.help_amortized": "El sistema calcula cada día cuánto dinero ha generado tu instalación FV, tanto por los excedentes vendidos como por la energía autoconsumida (la cual no se ha tenido que comprar a la red). La amortización indica qué proporción del coste de tu instalación FV ya se ha recuperado. Una mejor gestión de excedentes y un aumento en tu % de autoconsumo te llevará a una amortización más rápida.",
    "web.main_app.selfconsumption_rating_5": "Genial!! Eres el autoconsumidor perfecto!",
    "web.main_app.selfconsumption_rating_4.5": "Enhorabuena! Eres un gran autoconsumidor!",
    "web.main_app.selfconsumption_rating_4": "Muy bien, buen trabajo!",
    "web.main_app.selfconsumption_rating_3.5": "Bien, eres un autoconsumidor disciplinado!",
    "web.main_app.selfconsumption_rating_3": "No está mal, estás por encima de la media.",
    "web.main_app.selfconsumption_rating_2.5": "Casi! estás justo por debajo de la media.",
    "web.main_app.selfconsumption_rating_2": "Ánimo! mejorar está en tus manos!",
    "web.main_app.selfconsumption_rating_1.5": "Vamos! Hay margen de mejora!",
    "web.main_app.selfconsumption_rating_1": "Venga, puedes hacerlo mucho mejor!",
    "web.main_app.selfconsumption_rating_0.5": "Vaya, se podría sacar más provecho a tus placas…",
    "web.main_app.selfconsumption_rating_0": "Qué lástima, de verdad no puedes autoconsumir más?",
    "web.home_setup.solar_option.system_info": "El sistema es compatible con varias marcas y modelos de inversores solares. Consulta la lista de los que se han probado con éxito.\nTen en cuenta que aunque actualmente el sistema funcione con un determinado inversor, el fabricante podría modificar/bloquear el acceso en un futuro.",
    "web.calendar_device.modal_interval.check_mode": "Indica un modo",
    "web.calendar_device.modal_interval.check_start": "Indica una hora de inicio",
    "web.calendar_device.modal_interval.check_end": "Indica una hora de fin",
    "web.generals.switch.solar": "solar",
    "web.generals.switch.network": "red",
    "web.generals.peak_hour": "hora pico",
    "web.generals.no_peak_hour": "hora no pico",
    "web.main_app.import.balance_today": "Balance horario HOY",
    "web.main_app.solar.help_hourly_balance": "El “Balance horario” muestra el intercambio neto de energía con la red eléctrica cada hora. El objetivo es conseguir un balance “0”. Esto significa, no comprar energía de red y tampoco vender la generación propia (es decir, aprovechar toda tu producción)",
    "web.generals.no_value": "Sin valor",
    "web.control_panel.aditional_info_acs.calendar_on": "Encendido con excedentes y durante horas críticas (con preencendido 2h).",
    "web.control_panel.aditional_info_acs.calendar_off": "Funcionamiento sólo manual.",
    "web.control_panel.aditional_info_others.calendar_on": "Encendido según calendario.",
    "web.control_panel.aditional_info_others.calendar_self_consumption": "Encendido según calendario. Resto del tiempo, encendido con excedentes (%temp°C).",
    "web.control_panel.aditional_info_others.self_consumption": "Encendido sólo con excedentes (%tempºC).",
    "web.control_panel.aditional_info_others.calendar_off": "Funcionamiento sólo manual.",
    "web.home_setup.solar_option.huawei_search": "Buscando dispositivos Huawei...",
    "web.home_setup.solar_option.huawei_title": "Configura la red WiFi de tu inversor:",
    "web.home_setup.solar_option.huawei_warning": "Para guardar es necesario seleccionar un dispositivo y llenar el campo pwd.",
    "web.home_setup.solar_option.any_search": "Buscando dispositivos",
    "web.home_setup.solar_option.others_title": "Inversor detectado:",
    "web.control_panel.no_gateway_data.text": "El gateway no puede comunicar con este dispositivo.",
    "web.control_panel.no_gateway_data.info": "Para que el sistema funcione, el Gateway y los actuadores deben estar en la misma red local (misma LAN). Un actuador conectado a un repetidor WiFi puede estar en una subred distinta (según el tipo de repetidor WiFi y su configuración). Si se está usando un sistema mesh, se deberá conectar el Gateway a uno de los módulos mesh.",
    "web.home_setup.solar_option.gateway_title": "Gateway instalado",
    "web.generals.connected": "conectado",
    "web.generals.disconnected": "desconectado",
    "web.calendar_device.modes.title": "Temperaturas programación horaria",
    "web.calendar_device.surplus.title": "Comportamiento si hay excedentes",
    "web.calendar_device.surplus.info": "En caso de que haya excedentes de producción FV se puede aplicar una consigna térmica más \"fuerte\" para acumular energía térmica en el ambiente. Normalmente, durante las horas programadas (habitación ocupada) se pondrá una temperatura confortable. Por el contrario, fuera de las horas programadas se permite una temperatura más extrema.",
    "web.calendar_device.surplus.in_hour": "Durante las horas programadas",
    "web.calendar_device.surplus.modify_temp": "Funcionar a la temperatura",
    "web.calendar_device.surplus.only_surplus": "Funcionar solo si hay excedentes",
    "web.calendar_device.surplus.out_hour": "Fuera de las horas programadas",
    "web.calendar_device.surplus.out_hour_temp": "Funcionar a la temperatura",
    "web.calendar_device.peak_hour.title": "Comportamiento durante las horas pico",
    "web.calendar_device.peak_hour.info": "Durante las horas pico (las más caras) se puede variar el comportamiento del equipo para evitar el consumo parcial o totalmente. Suavizar consigna significa aumentar unos grados el objetivo de temperatura en modo refrigeración o disminuirlos en modo calefacción.",
    "web.calendar_device.peak_hour.temperature": "Suavizar consigna 2ºC",
    "web.calendar_device.peak_hour.forced_off": "Forzar apagado del equipo",
    "web.calendar_device.peak_hour.no_changes": "No hacer cambios",
    "web.calendar_device.pre_start.title": "Encendido anticipado",
    "web.calendar_device.pre_start.info": "El encendido anticipado es una optimización energética consistente en aprovechar la inercia térmica de la casa para desplazar consumos a momentos más convenientes. Funciona según las circunstancias de precio de energía y excedentes. De esta manera, si un tiempo antes de un uso programado la energía es más barata (o hay excedentes), se encenderá el equipo climatizador para acumular calor o frío en la sala (según convenga) y reducir el consumo durante las horas más caras. Se debe indicar un tiempo de pre encendido en horas (p.ej. 2h). Para deshabilitar esta función indicar un tiempo de 0h.",
    "web.calendar_device.pre_start.time": "Tiempo de preencendido",
    "web.calendar_device.modal_modify_value.title": "Editar tiempo de preencendido",
    "web.home_setup.amortized.title": "Amortización",
    "web.home_setup.gateway.title": "Configuración general",
    "web.home_setup.no_gateway.info": "No se ha detectado ningún Gateway en tu casa. Recuerda que para poder detectar un Gateway primero es necesario tener instalado un actuador en la misma red (Plug, Switch o IR).\nSi ya tienes instalados un Gateway y un actuador, espera unos minutos (la primera vez unos 20 min).",
    "web.analytics.amortized.subtitle": "Amortización de la instalación",
    "web.analytics.global.title": "Análisis global",
    "web.analytics.date.title": "Análisis",
    "web.analytics.date.balance": "Balance neto",
    "web.analytics.date.exported": "Vendido",
    "web.analytics.date.generated": "Generado",
    "web.analytics.date.selfconsumption": "Autoconsumido",
    "web.analytics.aggregate_date.purchased": "Comprado",
    "web.analytics.aggregate_date.selfconsumption": "Autocons.",
    "web.analytics.aggregate_date.subtitle": "Datos agregados mes en curso",
    "web.main_app.location.no_location_info": "Para la correcta gestión de excedentes hay que indicar la localización del hogar. Ve a ‘Mi cuenta’ - ‘Gestión del hogar’ (selecciona tu hogar) - ‘Localización’.",
    "web.main_app.aggregate_date.today": "Datos agregados HOY",
    "web.main_app.aggregate_date.info_today": "Datos agregados diarios",
    "web.analytics.amortized.no_amortized": "No hay datos de amortización porque no has indicado el coste de tu instalación solar.",
    "web.generals.date_period.no_data": "No hay datos para el periodo seleccionado.",
    "web.main_app.device_status.title": "Estado de los equipos AHORA",
    "web.main_app.device_status.info": "Verde: Encendido por excedentes. | Amarillo: Encendido manual o programado. | Gris: Dispositivo apagado o sin consumo. | Rojo: El dispositivo no está conectado o el gateway no puede comunicar con este dispositivo",
    "web.main_app.device_status.on_schedule": "Dispositivo encendido manual o programado",
    "web.main_app.device_status.by_surplus": "Dispositivo encendido por excedentes",
    "web.main_app.device_status.off": "Dispositivo apagado o sin consumo",
    "web.main_app.device_status.no_data": "Dispositivo sin conexión con el gateway",
    "web.control_panel.last_week.title": "Vista de la última semana",
    "web.control_panel.surplus_use.title": "Tiempo de uso por excedentes",
    "web.control_panel.normal_use.title": "Tiempo de uso programado o manual",
    "web.control_panel.calendar_option.manual": "Modo manual",
    "web.control_panel.surplus_use.tooltip": "Tiempo de uso con excedentes",
    "web.control_panel.normal_use.tooltip": "Tiempo de uso programado",
    "general.appliances.heater_no_sensor_temp": "radiador sin sensor",
    "web.calendar_device.appliance_operation.heating_ns": "calefacción",
    "general.option.heater_no_sensor_temp": "Sin sensor de temperatura",
    "web.calendar_device.modes.heating_ns": "encender",
    "general.appliances.pool": "piscina",
    "web.home_setup.solar_option.sungrow_info": "Algunos inversores de la marca Sungrow no ofrecen la medición del consumo de red (import/export). Este dato es imprescindible para poder gestionar los excedentes fotovoltaicos. Si tu modelo de inversor no ofrece este dato necesitarás un medidor Wibeee. Consulta esta información en el listado de inversores compatibles.",
    "web.home_setup.solar_option.sungrow_wibeee_title": "Selecciona el canal de consumo de red de tu medidor",
    "web.home_setup.solar_option.sungrow_wibeee_info": "Si tu medidor es trifásico el canal general es el 4. Si es monofásico lo más habitual es que esté configurado en el canal 1.",
    "web.home_setup.solar_option.sungrow_check": "El consumo de red (import/export) lo obtengo de un medidor aparte",
    "web.home_setup.solar_option.available_inverters": "Listado de inversores compatibles",
    "web.analytics.date.surplus": "Excedentes aprovechados",
    "web.analytics.selfconsumption.orchestra_percentage": "Porcentaje debido a gestión de excedentes",
    "web.analytics.amortized.by_orchestra": "Beneficio por la gestión de excedentes inteligente",
    "web.analytics.amortized.total": "Total",
    "web.general.from": "desde",
    "web.generals.connected_no_data": "conectando...",
    "web.generals.login_text": "Introduzca su usuario y contraseña",
    "web.generals.login_unfilled": "Es necesario completar el formulario.",
    "web.home_setup.solar_option.inverter_info": "Algunos inversores de esta marca no ofrecen la medición del canal general. Este dato es imprescindible para poder gestionar los excedentes fotovoltaicos. Si tu modelo de inversor no ofrece este dato necesitarás un medidor Wibeee. Consulta esta información en el listado de inversores compatibles.",
    "web.main_app.help_order_appliances": "Ordena la prioridad de encendido de tus equipos.",
    "web.home_setup.updating_fw": "Actualizando FW",
    "web.generals.form.text": "Rellena los siguientes datos",
    "web.main_app.import.price_tooltip": "Precio de compra",
    "web.main_app.export.price_tooltip": "Precio de venta",
    "web.home_setup.solar_option.config_info": "¿Cómo configurar tu inversor/medidor?",
    "web.info.title.main": "Cuenta vinculada",
    "web.info.link.text": "Si eres instalador y tienes una cuenta profesional de mirubeee introduce aquí el código de cuenta para que aparezca este usuario en tu panel de administración.",
    "web.info.link_code.error": "Código de cuenta incorrecto.",
    "web.info.button.docs": "Abrir manual de usuario",
    "web.info.link.placeholder": "CÓDIGO CUENTA",
    "web.generals.new_password.text": "Nueva contraseña",
    "web.generals.new_password.text_muted": "Por favor introduzca su contraseña.",
    "web.generals.repeat_password.text": "Repetir contraseña",
    "web.generals.repeat_password.text_muted": "Por favor introduzca su contraseña.",
    "web.generals.legal_conditions.text": "Acepto las condiciones legales.",
    "web.generals.legal_conditions.read": "Leer.",
    "web.activate_password.button": "Activar usuario",
    "web.activate_password.text": "Hola %email, introduce una contraseña para activar tu usuario",
    "web.reset_password.text": "Hola %email, completa el siguiente formulario para resetear tu contraseña",
    "web.reset_password.button": "Reset password",
    "web.admin_users.delete_admin_user.modal_info": "Se va a eliminar el usuario %name.",
    "web.admin_users.modal_delete.title": "Eliminar usuario administrador",
    "web.generals.forgotten_pwd.modal_text_submit": "Le acabamos de enviar un correo electrónico a la dirección que nos ha indicado con las instrucciones para resetear la contraseña.",
    "web.generals.forgotten_pwd.modal_title": "Contraseña olvidada ?",
    "web.generals.forgotten_pwd.modal_text": "Introduce tu correo electrónico para restablecer tu contraseña",
    "general.appliances.aerothermal_no_sensor_temp": "aerotermia sin sensor",
    "general.appliances.aerothermal": "aerotermia",
    "web.calendar_device.automatic_calendar_aerothermal.explication": "En modo automático se activa el modo potenciado (modo “boost”) de la aerotermia cuando hay excedentes solares. En el modo potenciado la aerotermia calienta el agua a más temperatura, acumulando así energía en forma de calor. Se mantienen los horarios de programación definidos en la aerotermia.",
    "web.calendar_mode.automatic": "Modo automático",
    "web.calendar_device.surplus.hot_water_info": "Es posible encender consumos eléctricos cuando haya excedentes de producción FV.\n\nActivar la casilla \"Durante las horas programadas\" hace que el equipo funcione durante las horas programadas sólo si hay excedentes. Esta opción estará normalmente desactivada para usos críticos como el agua caliente.\n\nActivar la casilla \"Fuera de las horas programadas\" hace que el equipo se pueda encender fuera de las horas programadas en caso de haber excedentes. Esta opción estará normalmente activada.\n\nEn caso de activar las dos casillas, el equipo se encenderá siempre y cuando haya excedentes, independientemente de la programación horaria.\n\nCon las dos casillas desactivadas, el equipo se encenderá sólo de acuerdo a la programación horaria.",
    "web.home_setup.batteries": "Tengo baterías",
    "web.calendar_device.modes.switch_on": "encender",
    "web.calendar_device.modal_interval.text_info_hot_water": "Indica las horas de uso crítico de agua caliente (como por ejemplo la ducha). Durante estas horas el sistema asegura la disponibilidad de agua caliente.\n\nIndica las horas de uso crítico de agua caliente (como por ejemplo la ducha). Para asegurar la disponibilidad de agua caliente cuando la necesitas piensa en avanzar un poco la hora de inicio (p.e. si necesitas ducharte a las 8h pon la hora de inicio a las 6h).",
    "web.calendar_device.modal_interval.check_intervals": "La hora de fin tiene que ser superior a la hora de inicio",
<<<<<<< Updated upstream
    "web.home_setup.no_timezone.info": "Para el correcto funcionamiento del sistema es recomendable configurar la zona horaria de tú cuenta. Ve a \"Mi cuenta\" - \"Datos personales\" - \"Zona horaria\"."
=======
    "web.home_setup.no_timezone.info": "Para el correcto funcionamiento del sistema es recomendable configurar la zona horaria de tu cuenta. Ve a \"Mi cuenta\" - \"Datos personales\" - \"Zona horaria\"."
>>>>>>> Stashed changes
}